{
  "recommends": [
    {
      "id": 0,
      "title": "사랑할때 걷기 좋은 길",
      "image": "https://encrypted-tbn3.gstatic.com/images?q=tbn:ANd9GcQQGAQQsKWPu8fWkFvixGc0nTnGgPrQK3AR80koiqnUt3bvjPkcCbwgFCQ",
      "text": "길을 만든 사람이 남긴 글",
      "address": "주소",
      "bookMarkCount": 3,
      "isBookMarked": true
    },
    {
      "id": 0,
      "title": "사랑할때 걷기 좋은 길",
      "image": "https://encrypted-tbn3.gstatic.com/images?q=tbn:ANd9GcQQGAQQsKWPu8fWkFvixGc0nTnGgPrQK3AR80koiqnUt3bvjPkcCbwgFCQ",
      "text": "길을 만든 사람이 남긴 글",
      "address": "주소",
      "bookMarkCount": 3,
      "isBookMarked": true
    },
    {
      "id": 0,
      "title": "사랑할때 걷기 좋은 길",
      "image": "https://encrypted-tbn3.gstatic.com/images?q=tbn:ANd9GcQQGAQQsKWPu8fWkFvixGc0nTnGgPrQK3AR80koiqnUt3bvjPkcCbwgFCQ",
      "text": "길을 만든 사람이 남긴 글",
      "address": "주소",
      "bookMarkCount": 3,
      "isBookMarked": true
    },
    {
      "id": 0,
      "title": "사랑할때 걷기 좋은 길",
      "image": "https://encrypted-tbn3.gstatic.com/images?q=tbn:ANd9GcQQGAQQsKWPu8fWkFvixGc0nTnGgPrQK3AR80koiqnUt3bvjPkcCbwgFCQ",
      "text": "길을 만든 사람이 남긴 글",
      "address": "주소",
      "bookMarkCount": 3,
      "isBookMarked": true
    },
    {
      "id": 0,
      "title": "사랑할때 걷기 좋은 길",
      "image": "https://encrypted-tbn3.gstatic.com/images?q=tbn:ANd9GcQQGAQQsKWPu8fWkFvixGc0nTnGgPrQK3AR80koiqnUt3bvjPkcCbwgFCQ",
      "text": "길을 만든 사람이 남긴 글",
      "address": "주소",
      "bookMarkCount": 3,
      "isBookMarked": true
    },
    {
      "id": 0,
      "title": "사랑할때 걷기 좋은 길",
      "image": "https://encrypted-tbn3.gstatic.com/images?q=tbn:ANd9GcQQGAQQsKWPu8fWkFvixGc0nTnGgPrQK3AR80koiqnUt3bvjPkcCbwgFCQ",
      "text": "길을 만든 사람이 남긴 글",
      "address": "주소",
      "bookMarkCount": 3,
      "isBookMarked": true
    },
    {
      "id": 0,
      "title": "사랑할때 걷기 좋은 길",
      "image": "https://encrypted-tbn3.gstatic.com/images?q=tbn:ANd9GcQQGAQQsKWPu8fWkFvixGc0nTnGgPrQK3AR80koiqnUt3bvjPkcCbwgFCQ",
      "text": "길을 만든 사람이 남긴 글",
      "address": "주소",
      "bookMarkCount": 3,
      "isBookMarked": true
    },
    {
      "id": 0,
      "title": "사랑할때 걷기 좋은 길",
      "image": "https://encrypted-tbn3.gstatic.com/images?q=tbn:ANd9GcQQGAQQsKWPu8fWkFvixGc0nTnGgPrQK3AR80koiqnUt3bvjPkcCbwgFCQ",
      "text": "길을 만든 사람이 남긴 글",
      "address": "주소",
      "bookMarkCount": 3,
      "isBookMarked": true
    },
    {
      "id": 0,
      "title": "사랑할때 걷기 좋은 길",
      "image": "https://encrypted-tbn3.gstatic.com/images?q=tbn:ANd9GcQQGAQQsKWPu8fWkFvixGc0nTnGgPrQK3AR80koiqnUt3bvjPkcCbwgFCQ",
      "text": "길을 만든 사람이 남긴 글",
      "address": "주소",
      "bookMarkCount": 3,
      "isBookMarked": true
    },
    {
      "id": 0,
      "title": "사랑할때 걷기 좋은 길",
      "image": "https://encrypted-tbn3.gstatic.com/images?q=tbn:ANd9GcQQGAQQsKWPu8fWkFvixGc0nTnGgPrQK3AR80koiqnUt3bvjPkcCbwgFCQ",
      "text": "길을 만든 사람이 남긴 글",
      "address": "주소",
      "bookMarkCount": 3,
      "isBookMarked": true
    },
    {
      "id": 0,
      "title": "사랑할때 걷기 좋은 길",
      "image": "https://encrypted-tbn3.gstatic.com/images?q=tbn:ANd9GcQQGAQQsKWPu8fWkFvixGc0nTnGgPrQK3AR80koiqnUt3bvjPkcCbwgFCQ",
      "text": "길을 만든 사람이 남긴 글",
      "address": "주소",
      "bookMarkCount": 3,
      "isBookMarked": true
    },
    {
      "id": 0,
      "title": "사랑할때 걷기 좋은 길",
      "image": "https://encrypted-tbn3.gstatic.com/images?q=tbn:ANd9GcQQGAQQsKWPu8fWkFvixGc0nTnGgPrQK3AR80koiqnUt3bvjPkcCbwgFCQ",
      "text": "길을 만든 사람이 남긴 글",
      "address": "주소",
      "bookMarkCount": 3,
      "isBookMarked": true
    }
  ],
  "news": [
    {
      "id": 0,
      "title": "사랑할때 걷기 좋은 길",
      "image": "https://encrypted-tbn3.gstatic.com/images?q=tbn:ANd9GcQQGAQQsKWPu8fWkFvixGc0nTnGgPrQK3AR80koiqnUt3bvjPkcCbwgFCQ",
      "text": "길을 만든 사람이 남긴 글",
      "address": "주소",
      "bookMarkCount": 3,
      "isBookMarked": true
    },
    {
      "id": 0,
      "title": "사랑할때 걷기 좋은 길",
      "image": "https://encrypted-tbn3.gstatic.com/images?q=tbn:ANd9GcQQGAQQsKWPu8fWkFvixGc0nTnGgPrQK3AR80koiqnUt3bvjPkcCbwgFCQ",
      "text": "길을 만든 사람이 남긴 글",
      "address": "주소",
      "bookMarkCount": 3,
      "isBookMarked": true
    },
    {
      "id": 0,
      "title": "사랑할때 걷기 좋은 길",
      "image": "https://encrypted-tbn3.gstatic.com/images?q=tbn:ANd9GcQQGAQQsKWPu8fWkFvixGc0nTnGgPrQK3AR80koiqnUt3bvjPkcCbwgFCQ",
      "text": "길을 만든 사람이 남긴 글",
      "address": "주소",
      "bookMarkCount": 3,
      "isBookMarked": true
    },
    {
      "id": 0,
      "title": "사랑할때 걷기 좋은 길",
      "image": "https://encrypted-tbn3.gstatic.com/images?q=tbn:ANd9GcQQGAQQsKWPu8fWkFvixGc0nTnGgPrQK3AR80koiqnUt3bvjPkcCbwgFCQ",
      "text": "길을 만든 사람이 남긴 글",
      "address": "주소",
      "bookMarkCount": 3,
      "isBookMarked": true
    }
  ],
  "sees": [
    {
      "id": 0,
      "title": "사랑할때 걷기 좋은 길",
      "image": "https://encrypted-tbn3.gstatic.com/images?q=tbn:ANd9GcQQGAQQsKWPu8fWkFvixGc0nTnGgPrQK3AR80koiqnUt3bvjPkcCbwgFCQ",
      "text": "길을 만든 사람이 남긴 글",
      "address": "주소",
      "bookMarkCount": 3,
      "isBookMarked": true
    },
    {
      "id": 0,
      "title": "사랑할때 걷기 좋은 길",
      "image": "https://encrypted-tbn3.gstatic.com/images?q=tbn:ANd9GcQQGAQQsKWPu8fWkFvixGc0nTnGgPrQK3AR80koiqnUt3bvjPkcCbwgFCQ",
      "text": "길을 만든 사람이 남긴 글",
      "address": "주소",
      "bookMarkCount": 3,
      "isBookMarked": true
    },
    {
      "id": 0,
      "title": "사랑할때 걷기 좋은 길",
      "image": "https://encrypted-tbn3.gstatic.com/images?q=tbn:ANd9GcQQGAQQsKWPu8fWkFvixGc0nTnGgPrQK3AR80koiqnUt3bvjPkcCbwgFCQ",
      "text": "길을 만든 사람이 남긴 글",
      "address": "주소",
      "bookMarkCount": 3,
      "isBookMarked": true
    },
    {
      "id": 0,
      "title": "사랑할때 걷기 좋은 길",
      "image": "https://encrypted-tbn3.gstatic.com/images?q=tbn:ANd9GcQQGAQQsKWPu8fWkFvixGc0nTnGgPrQK3AR80koiqnUt3bvjPkcCbwgFCQ",
      "text": "길을 만든 사람이 남긴 글",
      "address": "주소",
      "bookMarkCount": 3,
      "isBookMarked": true
    }
  ]
}