{
  "name": "Running 2/24/17 7:17 pm",
  "time": "2017-02-24T10:17:51Z",
  "locations": [
    {
      "lat": "37.464299000",
      "lng": "127.030405000",
      "time": "2017-02-24T10:17:51Z"
    },
    {
      "lat": "37.467569000",
      "lng": "127.029118000",
      "time": "2017-02-24T10:28:08Z"
    },
    {
      "lat": "37.470549000",
      "lng": "127.031328000",
      "time": "2017-02-24T10:38:31Z"
    },
    {
      "lat": "37.471928000",
      "lng": "127.032766000",
      "time": "2017-02-24T10:43:53Z"
    },
    {
      "lat": "37.473087000",
      "lng": "127.034482000",
      "time": "2017-02-24T10:49:16Z"
    },
    {
      "lat": "37.473819000",
      "lng": "127.037637000",
      "time": "2017-02-24T10:57:05Z"
    },
    {
      "lat": "37.474670000",
      "lng": "127.039976000",
      "time": "2017-02-24T11:03:13Z"
    },
    {
      "lat": "37.476680000",
      "lng": "127.041864000",
      "time": "2017-02-24T11:10:45Z"
    },
    {
      "lat": "37.478655000",
      "lng": "127.043495000",
      "time": "2017-02-24T11:17:51Z"
    }
  ]
}
